<?xml version="1.0" encoding="utf-8"?>
<!-- Generator: Adobe Illustrator 22.0.1, SVG Export Plug-In . SVG Version: 6.00 Build 0)  -->
<svg version="1.1" id="Layer_1" xmlns="http://www.w3.org/2000/svg" xmlns:xlink="http://www.w3.org/1999/xlink" x="0px" y="0px"
	 viewBox="0 0 189.1 169.2" style="enable-background:new 0 0 189.1 169.2;" xml:space="preserve">
<style type="text/css">
	.st0{fill:#FFFFFF;}
</style>
<path class="st0" d="M10.9,69.1l37.7,17.5l6.5,50l19.5-29.9l29.9,46.8l76.6-133.8L10.9,69.1z M69.3,92.3l-13,37.1l-4.6-43.7l13.2-6
	L173.1,26L69.3,92.3z"/>
</svg>
